"VertexlitGeneric"
{
	"$basetexture" "models/doctorwho1200/capaldi/door"
	"$bumpmap" "models/doctorwho1200/capaldi/doorn"
	"$normalmap" "models/doctorwho1200/capaldi/doorn"
	"$surfaceprop" "Glass"
	"$selfillum" 1
        "$selfillummask" "models/doctorwho1200/capaldi/white"
	"$envmap" "models/doctorwho1200/capaldi/environment"
	"$envmaptint" "[0.5 0.5 0.5]"
	"$nodecal" "1"
}
