"VertexlitGeneric"
{
	"$basetexture" "models/doctorwho1200/capaldi/door"
	"$bumpmap" "models/doctorwho1200/capaldi/doorn"
	"$normalmap" "models/doctorwho1200/capaldi/doorn"
	"$surfaceprop" "Wood_Solid"
	"$nodecal" "1"
}
