"VertexlitGeneric"
{
	"$basetexture" "models/doctorwho1200/capaldi/windows3"
	"$bumpmap" "models/doctorwho1200/capaldi/windowsn"
	"$normalmap" "models/doctorwho1200/capaldi/windowsn"
	"$surfaceprop" "Glass"
	"$selfillum" 1
        "$selfillummask" "models/doctorwho1200/capaldi/white"
	"$envmap" "models/doctorwho1200/capaldi/environment"
	"$envmaptint" "[0.8 0.8 0.8]"
	"$nodecal" "1"
}